-73.5184630000000	-55
-65.9784700000000	-50
-62.3111720000000	-45
-63.4550250000000	-40
-64.1949620000000	-35
-63.8802830000000	-30
-63.2996830000000	-25
-62.5441970000000	-20
-60.6560130000000	-15
-59.4082570000000	-10
-58.6604420000000	-5
-58.3426700000000	0
-58.4842410000000	5
-59.5389940000000	10
-60.8770980000000	15
-62.3570820000000	20
-63.2371600000000	25
-65.6614380000000	30
-66.1741260000000	35
-66.4195560000000	40
-64.2445300000000	45
-64.1082990000000	50
-75.8833540000000	55