-73.049522
-74.292778
-75.083359
-75.656502
-84.064468
-85.234917
-86.202278
-87.042305
-86.974838
-86.885544
-86.786774
-86.669800
-86.554008
-86.401489
-86.228096
-86.051003
-85.873306
-85.726181
-85.595482
-85.460152
-85.332077
-85.214478
-85.118217
-85.030899
-84.927162
-84.792168
-84.659081
-84.513924
-84.401138
-84.290092
-84.172539
-84.072502
-83.978279
-83.919914
-83.882401
-83.881004
-83.861038
-83.839333
-83.824905
-83.773651
-83.755142
-83.712090
-83.646027
-83.595200
-83.526321
-83.464409
-83.430107
-83.389954
-83.372810
-83.358360
-83.360764
-83.343834
-83.347687
-83.343658
-83.322655
-83.301147
-83.248405
-83.200378
-83.149033
-83.092056
-83.053764
-83.050072
-83.038132
-83.054924
-83.082390
-83.103584
-83.136734
-83.164246
-83.166183
-83.145714
-83.122643
-83.084724
-83.042328
-82.993523
-82.981438
-82.964851
-82.953674
-82.946480
-82.962692
-82.996391
-83.008522
-83.033295
-83.001945
-82.971741
-82.931984
-82.899292
-82.863785
-82.830070
-82.821205
-82.818657
-82.829124
-82.870369
-82.911285
-82.949486
-82.982132
-82.999016
-82.979721
-82.955254
-82.934029
-82.887405
-82.837692
-82.800774
-82.761894
-82.749138
-82.772278
-82.804901
-82.836983
-82.877876
-82.917534
-82.913399
-82.916206
-82.902817
-82.864830
-82.810081
-82.755249
-82.717583
-82.713737
-82.735054
-82.774887
-82.802597
-82.854858
-82.904549
-82.951340
-82.951286
-82.934639
-82.932434
-82.889168
-82.866394
-82.818054
-82.799301
-82.798119
-82.826439
-82.870827
-82.886993
-82.927505
-82.935608
-82.973869
-82.979118
-82.967384
-82.930344
-82.876541
-82.846992
-82.815651
-82.822510
-82.810196
-82.822365
-82.835449
-82.869415
-82.908752
-82.928200
-82.924301
-82.909737
-82.905464
-82.883057
-82.873329
-82.865234
-82.842949
-82.860817
-82.890869
-82.905869
-82.925270
-82.967598
-82.990990
-83.024818
-83.044151
-83.021706
-82.990196
-82.964462
-82.940277
-82.909416
-82.890831
-82.868073
-82.862671
-82.865471
-82.892174
-82.924561
-82.936554
-82.955132
-82.951591
-82.934830
-82.927269
-82.925644
-82.900314
-82.861519
-82.837311
-82.834106
-82.866524
-82.915359
-82.943748
-82.969482
-82.997673
-83.041611
-83.069855
-83.069519
-83.046394
-83.010406
-82.982704
-82.944267
-82.918564
-82.914337
-82.931618
-82.950684
-82.958893
-82.989807
-83.020668
-83.073349
-83.104919
-83.106148
-83.081764
-83.045525
-83.027077
-83.005096
-82.995972
-82.977844
-82.980522
-83.015572
-83.073792
-83.147781
-83.189835
-83.214996
-83.224663
-83.242783
-83.251236
-83.210068
-83.171783
-83.133575
-83.141586
-83.189255
-83.253471
-83.353516
-83.508278
-83.770248
-84.089592
-84.497482
-84.970390
-85.514557
-86.174126
-86.908615
-87.720940
-88.547806
-89.381218
-90.170708
-90.868927
-91.434944
-91.839516
-92.054230
-92.064301
-89.920837
-89.618782
-89.201263
-88.708702
-88.233597
-87.785194
-87.526016
-87.282967
-87.033691